Empirical Independence | Christopher R. Dishop
…
All possible combinations to create a meal:

dishes <- data.frame(
    main = c("chicken", "salmon", "pork", "chicken", "pancakes", "french toast"),
    side = c("salad", "salad", "green beans", "corn", "carrots", "bacon")
)

possible_meals <- dishes %>%
  cross_df() %>%
  mutate_if(is.factor,as.character)

possible_meals

## # A tibble: 36 x 2
##    main         side 
##    <chr>        <chr>
##  1 chicken      salad
##  2 salmon       salad
##  3 pork         salad
##  4 chicken      salad
##  5 pancakes     salad
##  6 french toast salad
##  7 chicken      salad
##  8 salmon       salad
##  9 pork         salad
## 10 chicken      salad
## # … with 26 more rows
…
